digraph "SpaceDivision.GetIcosis"
{
  edge [fontname="Helvetica",fontsize="10",labelfontname="Helvetica",labelfontsize="10"];
  node [fontname="Helvetica",fontsize="10",shape=record];
  rankdir="LR";
  Node1 [label="SpaceDivision.GetIcosis",height=0.2,width=0.4,color="black", fillcolor="grey75", style="filled", fontcolor="black"];
  Node1 -> Node2 [dir="back",color="midnightblue",fontsize="10",style="solid"];
  Node2 [label="RoadBuilder.MoveSpaceCenter",height=0.2,width=0.4,color="black", fillcolor="white", style="filled",URL="$class_road_builder.html#ab8d8ba53630df05400548cf3de16607e",tooltip="Move the position of the center of render space. "];
}
