digraph "Tuple.Add"
{
  edge [fontname="Helvetica",fontsize="10",labelfontname="Helvetica",labelfontsize="10"];
  node [fontname="Helvetica",fontsize="10",shape=record];
  rankdir="LR";
  Node1 [label="Tuple.Add",height=0.2,width=0.4,color="black", fillcolor="grey75", style="filled", fontcolor="black"];
  Node1 -> Node2 [dir="back",color="midnightblue",fontsize="10",style="solid"];
  Node2 [label="TupleList.Add",height=0.2,width=0.4,color="black", fillcolor="white", style="filled",URL="$class_tuple_list.html#ab268b03c35b8b8c1aa0ec40b156e3a15",tooltip="Add a face collided. "];
  Node2 -> Node3 [dir="back",color="midnightblue",fontsize="10",style="solid"];
  Node3 [label="Icosidodecahedron.BlockFace",height=0.2,width=0.4,color="black", fillcolor="white", style="filled",URL="$class_icosidodecahedron.html#a14a0f427ac1b06d97f8b2cdba27b3939",tooltip="Block a corridor to specific face. "];
  Node3 -> Node4 [dir="back",color="midnightblue",fontsize="10",style="solid"];
  Node4 [label="RoadBuilder.Repair",height=0.2,width=0.4,color="black", fillcolor="white", style="filled",URL="$class_road_builder.html#a7c314c9501a6a9d96c007e23c3133b9b",tooltip="Repair the corridors which cannot be used. "];
  Node2 -> Node5 [dir="back",color="midnightblue",fontsize="10",style="solid"];
  Node5 [label="RoadBuilder.Rebuild",height=0.2,width=0.4,color="black", fillcolor="white", style="filled",URL="$class_road_builder.html#a5b9ccac319e8e2a6035dc1ffd1cb3005",tooltip="Rebuild collaided icosidodecahedrons. "];
}
