digraph "Data.GetSizeView"
{
  edge [fontname="Helvetica",fontsize="10",labelfontname="Helvetica",labelfontsize="10"];
  node [fontname="Helvetica",fontsize="10",shape=record];
  rankdir="LR";
  Node1 [label="Data.GetSizeView",height=0.2,width=0.4,color="black", fillcolor="grey75", style="filled", fontcolor="black"];
  Node1 -> Node2 [dir="back",color="midnightblue",fontsize="10",style="solid"];
  Node2 [label="Core.SetData",height=0.2,width=0.4,color="black", fillcolor="white", style="filled",URL="$class_core.html#a297c82c8cb2132fb53a04abdf6df2f3e",tooltip="Get the pattern parameters from initial scene. "];
}
