digraph "IcosidodecahedronList.Count"
{
  edge [fontname="Helvetica",fontsize="10",labelfontname="Helvetica",labelfontsize="10"];
  node [fontname="Helvetica",fontsize="10",shape=record];
  rankdir="LR";
  Node1 [label="IcosidodecahedronList.Count",height=0.2,width=0.4,color="black", fillcolor="grey75", style="filled", fontcolor="black"];
  Node1 -> Node2 [dir="back",color="midnightblue",fontsize="10",style="solid"];
  Node2 [label="RoadBuilder.PutPJ",height=0.2,width=0.4,color="black", fillcolor="white", style="filled",URL="$class_road_builder.html#a3eaaa0fb2687534c027748576e8da909",tooltip="Instantiate player into a specific icosidodecahedron "];
  Node1 -> Node3 [dir="back",color="midnightblue",fontsize="10",style="solid"];
  Node3 [label="RoadBuilder.Check",height=0.2,width=0.4,color="black", fillcolor="white", style="filled",URL="$class_road_builder.html#af98f4dc930628c2817d0d3fbd2aa43fa",tooltip="Activate the proces to check collision to new icosidodecahedrons. "];
}
