digraph "RoadBuilder.GenerateSons"
{
  edge [fontname="Helvetica",fontsize="10",labelfontname="Helvetica",labelfontsize="10"];
  node [fontname="Helvetica",fontsize="10",shape=record];
  rankdir="LR";
  Node1 [label="RoadBuilder.GenerateSons",height=0.2,width=0.4,color="black", fillcolor="grey75", style="filled", fontcolor="black"];
  Node1 -> Node2 [color="midnightblue",fontsize="10",style="solid"];
  Node2 [label="IcosidodecahedronList.Is\lEmpty",height=0.2,width=0.4,color="black", fillcolor="white", style="filled",URL="$class_icosidodecahedron_list.html#acc3c0a2b0e04f402216460b174f96316",tooltip="Check if the list is empty. "];
  Node1 -> Node3 [color="midnightblue",fontsize="10",style="solid"];
  Node3 [label="IcosidodecahedronList.GetNext",height=0.2,width=0.4,color="black", fillcolor="white", style="filled",URL="$class_icosidodecahedron_list.html#a357dad9485e79a52280de8b43034e3c6",tooltip="Get the first icosidodecahedron and erase from the list. "];
  Node1 -> Node4 [color="midnightblue",fontsize="10",style="solid"];
  Node4 [label="Icosidodecahedron.GetUnion",height=0.2,width=0.4,color="black", fillcolor="white", style="filled",URL="$class_icosidodecahedron.html#ae6a5e766750daa692813f95afd0a46ff",tooltip="Get all possible union from the icosidodecahedron. "];
  Node1 -> Node5 [color="midnightblue",fontsize="10",style="solid"];
  Node5 [label="Icosidodecahedron.Generate\lUnions",height=0.2,width=0.4,color="black", fillcolor="white", style="filled",URL="$class_icosidodecahedron.html#a7e47bbce58809590751d9b65aec32c60",tooltip="Generate all possible union from the icosidodecahedron. "];
  Node5 -> Node6 [color="midnightblue",fontsize="10",style="solid"];
  Node6 [label="InternalRoadGenerator.Get\lLimitFacesFaces",height=0.2,width=0.4,color="black", fillcolor="white", style="filled",URL="$class_internal_road_generator.html#ac6cd881778ae9053d723f2b48da64bc3",tooltip="Get all faces without all neighbours used. "];
  Node5 -> Node7 [color="midnightblue",fontsize="10",style="solid"];
  Node7 [label="InternalRoadGenerator.Get\lFacesBorder",height=0.2,width=0.4,color="black", fillcolor="white", style="filled",URL="$class_internal_road_generator.html#a956170ef2204f2ff86e8fd7ea5cd1118",tooltip="Get the border faces from especific face. "];
  Node5 -> Node8 [color="midnightblue",fontsize="10",style="solid"];
  Node8 [label="IcosidodecahedronUnion.Set\lLimitFace",height=0.2,width=0.4,color="black", fillcolor="white", style="filled",URL="$class_icosidodecahedron_union.html#a36c76844a04247d66ac7d0fc80a7e8fe",tooltip="Set the limit face of icosidodecahedron father. "];
  Node5 -> Node9 [color="midnightblue",fontsize="10",style="solid"];
  Node9 [label="IcosidodecahedronBuilder.\lGetNewCenterPoint",height=0.2,width=0.4,color="black", fillcolor="white", style="filled",URL="$class_icosidodecahedron_builder.html#a93da8f0a6660c6862b1db54f1b810c9f",tooltip="Create the center of new icosidodecahedron. "];
  Node5 -> Node10 [color="midnightblue",fontsize="10",style="solid"];
  Node10 [label="IcosidodecahedronBuilder.\lGetFaceMode",height=0.2,width=0.4,color="black", fillcolor="white", style="filled",URL="$class_icosidodecahedron_builder.html#a938693fb0770ce47794de173d08e1268",tooltip="Get the mode of faces in the icosidodecahedron. "];
  Node1 -> Node11 [color="midnightblue",fontsize="10",style="solid"];
  Node11 [label="Icosidodecahedron.GetNumber",height=0.2,width=0.4,color="black", fillcolor="white", style="filled",URL="$class_icosidodecahedron.html#a499190446c15c722b485e3d40e08d4b1",tooltip="Get the number of the icosidodecahedron. "];
  Node11 -> Node12 [color="midnightblue",fontsize="10",style="solid"];
  Node12 [label="IcosidodecahedronBuilder.\lGetNumber",height=0.2,width=0.4,color="black", fillcolor="white", style="filled",URL="$class_icosidodecahedron_builder.html#a70ff4d346397c4cd6c65996400e7e80c",tooltip="Get the number of gameobject in the scene. "];
  Node1 -> Node13 [color="midnightblue",fontsize="10",style="solid"];
  Node13 [label="InternalRoadGenerator.Get\lOppositeFace",height=0.2,width=0.4,color="black", fillcolor="white", style="filled",URL="$class_internal_road_generator.html#ad067775b5ecf460aae1ad81bab984d4b",tooltip="Get the oposite face. "];
  Node1 -> Node14 [color="midnightblue",fontsize="10",style="solid"];
  Node14 [label="Icosidodecahedron.SetData\lFather",height=0.2,width=0.4,color="black", fillcolor="white", style="filled",URL="$class_icosidodecahedron.html#a68cf3e9bd06c908cef50a22c8c13c6d5",tooltip="Set the father parameters "];
  Node1 -> Node15 [color="midnightblue",fontsize="10",style="solid"];
  Node15 [label="IcosidodecahedronBuilder.\lGetCorridorUnion",height=0.2,width=0.4,color="black", fillcolor="white", style="filled",URL="$class_icosidodecahedron_builder.html#a63fddb8f76f4787ab9d7715c2e36dda2",tooltip="Get the connected corridor between two faces. "];
  Node1 -> Node16 [color="midnightblue",fontsize="10",style="solid"];
  Node16 [label="Icosidodecahedron.PutInTo\lScene",height=0.2,width=0.4,color="black", fillcolor="white", style="filled",URL="$class_icosidodecahedron.html#aea51ad9120887cf4fcfdadcd34bcc6c7",tooltip="Instantiate an icosidodecahedron gameobject into scene with a number of faces. "];
  Node16 -> Node17 [color="midnightblue",fontsize="10",style="solid"];
  Node17 [label="InternalRoadGenerator.GetRoad",height=0.2,width=0.4,color="black", fillcolor="white", style="filled",URL="$class_internal_road_generator.html#a6cd61206034ab8990bee5727331aef06",tooltip="Create and get the road of face to use. "];
  Node16 -> Node18 [color="midnightblue",fontsize="10",style="solid"];
  Node18 [label="IcosidodecahedronBuilder.\lAddFace",height=0.2,width=0.4,color="black", fillcolor="white", style="filled",URL="$class_icosidodecahedron_builder.html#ae15a076315cb385287653e3a7d293a9e",tooltip="Instantiate a new face in icosidodecahedron "];
  Node1 -> Node19 [color="midnightblue",fontsize="10",style="solid"];
  Node19 [label="IcosidodecahedronList.Add",height=0.2,width=0.4,color="black", fillcolor="white", style="filled",URL="$class_icosidodecahedron_list.html#aa0938c08c91fec6ae6268758d347a3f9",tooltip="Add an icosiododechaedron to the list. "];
}
