digraph "IcosidodecahedronList.IsEmpty"
{
  edge [fontname="Helvetica",fontsize="10",labelfontname="Helvetica",labelfontsize="10"];
  node [fontname="Helvetica",fontsize="10",shape=record];
  rankdir="LR";
  Node1 [label="IcosidodecahedronList.Is\lEmpty",height=0.2,width=0.4,color="black", fillcolor="grey75", style="filled", fontcolor="black"];
  Node1 -> Node2 [dir="back",color="midnightblue",fontsize="10",style="solid"];
  Node2 [label="IcosidodecahedronList.Clear",height=0.2,width=0.4,color="black", fillcolor="white", style="filled",URL="$class_icosidodecahedron_list.html#a5f70a1b1f468ba6d8972e444010ace4e",tooltip="Destroy all icosiodecahedron data from the list. "];
  Node1 -> Node3 [dir="back",color="midnightblue",fontsize="10",style="solid"];
  Node3 [label="RoadBuilder.GenerateSons",height=0.2,width=0.4,color="black", fillcolor="white", style="filled",URL="$class_road_builder.html#aa63d6ecfb5b14c073a877c7f9a9a6edf",tooltip="Generate all possible icosiododecahedron sons. "];
  Node1 -> Node4 [dir="back",color="midnightblue",fontsize="10",style="solid"];
  Node4 [label="RoadBuilder.Rebuild",height=0.2,width=0.4,color="black", fillcolor="white", style="filled",URL="$class_road_builder.html#a5b9ccac319e8e2a6035dc1ffd1cb3005",tooltip="Rebuild collaided icosidodecahedrons. "];
  Node1 -> Node5 [dir="back",color="midnightblue",fontsize="10",style="solid"];
  Node5 [label="RoadBuilder.MoveSpaceCenter",height=0.2,width=0.4,color="black", fillcolor="white", style="filled",URL="$class_road_builder.html#ab8d8ba53630df05400548cf3de16607e",tooltip="Move the position of the center of render space. "];
  Node1 -> Node6 [dir="back",color="midnightblue",fontsize="10",style="solid"];
  Node6 [label="RoadBuilder.MoreToRebuild",height=0.2,width=0.4,color="black", fillcolor="white", style="filled",URL="$class_road_builder.html#aaddcb44d2fd0eab7a444758d50ea57ed",tooltip="Check if have more icosidodecahedron to check. "];
  Node1 -> Node7 [dir="back",color="midnightblue",fontsize="10",style="solid"];
  Node7 [label="SpaceDivision.SaveIcosi",height=0.2,width=0.4,color="black", fillcolor="white", style="filled",URL="$class_space_division.html#a4b5da56594b3cc0cdb9b681f2e595df6",tooltip="Save a list of icosiodecahedron inside a subcube. "];
  Node7 -> Node5 [dir="back",color="midnightblue",fontsize="10",style="solid"];
}
