digraph "Icosidodecahedron.Rebuild"
{
  edge [fontname="Helvetica",fontsize="10",labelfontname="Helvetica",labelfontsize="10"];
  node [fontname="Helvetica",fontsize="10",shape=record];
  rankdir="LR";
  Node1 [label="Icosidodecahedron.Rebuild",height=0.2,width=0.4,color="black", fillcolor="grey75", style="filled", fontcolor="black"];
  Node1 -> Node2 [dir="back",color="midnightblue",fontsize="10",style="solid"];
  Node2 [label="RoadBuilder.Rebuild",height=0.2,width=0.4,color="black", fillcolor="white", style="filled",URL="$class_road_builder.html#a5b9ccac319e8e2a6035dc1ffd1cb3005",tooltip="Rebuild collaided icosidodecahedrons. "];
}
