digraph "Icosidodecahedron.GetInceptionFace"
{
  edge [fontname="Helvetica",fontsize="10",labelfontname="Helvetica",labelfontsize="10"];
  node [fontname="Helvetica",fontsize="10",shape=record];
  rankdir="LR";
  Node1 [label="Icosidodecahedron.GetInceptionFace",height=0.2,width=0.4,color="black", fillcolor="grey75", style="filled", fontcolor="black"];
  Node1 -> Node2 [color="midnightblue",fontsize="10",style="solid"];
  Node2 [label="InternalRoadGenerator.Get\lInceptionFace",height=0.2,width=0.4,color="black", fillcolor="white", style="filled",URL="$class_internal_road_generator.html#af49076a87e00ca10536e7378148a4c33",tooltip="Get the inception face. "];
}
