digraph "IcosidodecahedronList.GetIcosi"
{
  edge [fontname="Helvetica",fontsize="10",labelfontname="Helvetica",labelfontsize="10"];
  node [fontname="Helvetica",fontsize="10",shape=record];
  rankdir="LR";
  Node1 [label="IcosidodecahedronList.Get\lIcosi",height=0.2,width=0.4,color="black", fillcolor="grey75", style="filled", fontcolor="black"];
  Node1 -> Node2 [dir="back",color="midnightblue",fontsize="10",style="solid"];
  Node2 [label="RoadBuilder.Repair",height=0.2,width=0.4,color="black", fillcolor="white", style="filled",URL="$class_road_builder.html#a7c314c9501a6a9d96c007e23c3133b9b",tooltip="Repair the corridors which cannot be used. "];
  Node1 -> Node3 [dir="back",color="midnightblue",fontsize="10",style="solid"];
  Node3 [label="RoadBuilder.Rebuild",height=0.2,width=0.4,color="black", fillcolor="white", style="filled",URL="$class_road_builder.html#a5b9ccac319e8e2a6035dc1ffd1cb3005",tooltip="Rebuild collaided icosidodecahedrons. "];
  Node1 -> Node4 [dir="back",color="midnightblue",fontsize="10",style="solid"];
  Node4 [label="RoadBuilder.MoveSpaceCenter",height=0.2,width=0.4,color="black", fillcolor="white", style="filled",URL="$class_road_builder.html#ab8d8ba53630df05400548cf3de16607e",tooltip="Move the position of the center of render space. "];
}
