digraph "InternalRoadGenerator.GetLimitFacesFaces"
{
  edge [fontname="Helvetica",fontsize="10",labelfontname="Helvetica",labelfontsize="10"];
  node [fontname="Helvetica",fontsize="10",shape=record];
  rankdir="LR";
  Node1 [label="InternalRoadGenerator.Get\lLimitFacesFaces",height=0.2,width=0.4,color="black", fillcolor="grey75", style="filled", fontcolor="black"];
  Node1 -> Node2 [dir="back",color="midnightblue",fontsize="10",style="solid"];
  Node2 [label="Icosidodecahedron.Generate\lUnions",height=0.2,width=0.4,color="black", fillcolor="white", style="filled",URL="$class_icosidodecahedron.html#a7e47bbce58809590751d9b65aec32c60",tooltip="Generate all possible union from the icosidodecahedron. "];
  Node2 -> Node3 [dir="back",color="midnightblue",fontsize="10",style="solid"];
  Node3 [label="RoadBuilder.GenerateSons",height=0.2,width=0.4,color="black", fillcolor="white", style="filled",URL="$class_road_builder.html#aa63d6ecfb5b14c073a877c7f9a9a6edf",tooltip="Generate all possible icosiododecahedron sons. "];
}
