digraph "IcosidodecahedronBuilder.ReCreate"
{
  edge [fontname="Helvetica",fontsize="10",labelfontname="Helvetica",labelfontsize="10"];
  node [fontname="Helvetica",fontsize="10",shape=record];
  rankdir="LR";
  Node1 [label="IcosidodecahedronBuilder.\lReCreate",height=0.2,width=0.4,color="black", fillcolor="grey75", style="filled", fontcolor="black"];
  Node1 -> Node2 [dir="back",color="midnightblue",fontsize="10",style="solid"];
  Node2 [label="Icosidodecahedron.PutInTo\lScene",height=0.2,width=0.4,color="black", fillcolor="white", style="filled",URL="$class_icosidodecahedron.html#aa92d6d2f28675116f8a3033cfe07f3df",tooltip="Istantiate an icosidodecahedron gameobject saved into the scene. "];
}
