digraph "C:/Users/malzar/Desktop/Master/PFM/GIT/IcosaedronMuseum-Version01/Assets/0Scripts" {
  compound=true
  node [ fontsize="10", fontname="Helvetica"];
  edge [ labelfontsize="10", labelfontname="Helvetica"];
  dir_c1002959b4e986af8801be8c3c30af08 [shape=box, label="0Scripts", style="filled", fillcolor="#eeeeff", pencolor="black", URL="dir_c1002959b4e986af8801be8c3c30af08.html"];
}
