%YAML 1.1
%TAG !u! tag:unity3d.com,2011:
--- !u!55 &1
PhysicsManager:
  m_ObjectHideFlags: 0
  m_Gravity: {x: 1.08058941, y: 6.32587385, z: 7.40645981}
  m_DefaultMaterial: {fileID: 0}
  m_BounceThreshold: 2
  m_SleepVelocity: .150000006
  m_SleepAngularVelocity: .140000001
  m_MaxAngularVelocity: 7
  m_MinPenetrationForPenalty: .00999999978
  m_SolverIterationCount: 6
  m_RaycastsHitTriggers: 1
  m_LayerCollisionMatrix: ffffffffffffffffffffffffffffffffffffffffffffffffffffffffffffffffffffffffffffffffffffffffffffffffffffffffffffffffffffffffffffffffffffffffffffffffffffffffffffffffffffffffffffffffffffffffffffffffffffffffffffffffffffffffffffffffffffffffffffffffffffffffffffffff
