digraph "IcosidodecahedronList.GetByNumber"
{
  edge [fontname="Helvetica",fontsize="10",labelfontname="Helvetica",labelfontsize="10"];
  node [fontname="Helvetica",fontsize="10",shape=record];
  rankdir="LR";
  Node1 [label="IcosidodecahedronList.Get\lByNumber",height=0.2,width=0.4,color="black", fillcolor="grey75", style="filled", fontcolor="black"];
  Node1 -> Node2 [color="midnightblue",fontsize="10",style="solid"];
  Node2 [label="Icosidodecahedron.GetNumber",height=0.2,width=0.4,color="black", fillcolor="white", style="filled",URL="$class_icosidodecahedron.html#a499190446c15c722b485e3d40e08d4b1",tooltip="Get the number of the icosidodecahedron. "];
  Node2 -> Node3 [color="midnightblue",fontsize="10",style="solid"];
  Node3 [label="IcosidodecahedronBuilder.\lGetNumber",height=0.2,width=0.4,color="black", fillcolor="white", style="filled",URL="$class_icosidodecahedron_builder.html#a70ff4d346397c4cd6c65996400e7e80c",tooltip="Get the number of gameobject in the scene. "];
}
