digraph "IcosidodecahedronList.Add"
{
  edge [fontname="Helvetica",fontsize="10",labelfontname="Helvetica",labelfontsize="10"];
  node [fontname="Helvetica",fontsize="10",shape=record];
  rankdir="LR";
  Node1 [label="IcosidodecahedronList.Add",height=0.2,width=0.4,color="black", fillcolor="grey75", style="filled", fontcolor="black"];
  Node1 -> Node2 [dir="back",color="midnightblue",fontsize="10",style="solid"];
  Node2 [label="RoadBuilder.Start",height=0.2,width=0.4,color="black", fillcolor="white", style="filled",URL="$class_road_builder.html#a105fa6381c4a3d04e2002cf3ebc8e0a1",tooltip="Start the procces with first icosidodecahedron. "];
  Node1 -> Node3 [dir="back",color="midnightblue",fontsize="10",style="solid"];
  Node3 [label="RoadBuilder.GenerateSons",height=0.2,width=0.4,color="black", fillcolor="white", style="filled",URL="$class_road_builder.html#aa63d6ecfb5b14c073a877c7f9a9a6edf",tooltip="Generate all possible icosiododecahedron sons. "];
  Node1 -> Node4 [dir="back",color="midnightblue",fontsize="10",style="solid"];
  Node4 [label="RoadBuilder.Repair",height=0.2,width=0.4,color="black", fillcolor="white", style="filled",URL="$class_road_builder.html#a7c314c9501a6a9d96c007e23c3133b9b",tooltip="Repair the corridors which cannot be used. "];
  Node1 -> Node5 [dir="back",color="midnightblue",fontsize="10",style="solid"];
  Node5 [label="RoadBuilder.Rebuild",height=0.2,width=0.4,color="black", fillcolor="white", style="filled",URL="$class_road_builder.html#a5b9ccac319e8e2a6035dc1ffd1cb3005",tooltip="Rebuild collaided icosidodecahedrons. "];
  Node1 -> Node6 [dir="back",color="midnightblue",fontsize="10",style="solid"];
  Node6 [label="RoadBuilder.MoveSpaceCenter",height=0.2,width=0.4,color="black", fillcolor="white", style="filled",URL="$class_road_builder.html#ab8d8ba53630df05400548cf3de16607e",tooltip="Move the position of the center of render space. "];
  Node1 -> Node7 [dir="back",color="midnightblue",fontsize="10",style="solid"];
  Node7 [label="SpaceDivision.SaveIcosi",height=0.2,width=0.4,color="black", fillcolor="white", style="filled",URL="$class_space_division.html#a4b5da56594b3cc0cdb9b681f2e595df6",tooltip="Save a list of icosiodecahedron inside a subcube. "];
  Node7 -> Node6 [dir="back",color="midnightblue",fontsize="10",style="solid"];
}
