digraph "Icosidodecahedron.GetFatherNumber"
{
  edge [fontname="Helvetica",fontsize="10",labelfontname="Helvetica",labelfontsize="10"];
  node [fontname="Helvetica",fontsize="10",shape=record];
  rankdir="LR";
  Node1 [label="Icosidodecahedron.GetFather\lNumber",height=0.2,width=0.4,color="black", fillcolor="grey75", style="filled", fontcolor="black"];
  Node1 -> Node2 [color="midnightblue",fontsize="10",style="solid"];
  Node2 [label="IcosidodecahedronBuilder.\lGetFatherNumber",height=0.2,width=0.4,color="black", fillcolor="white", style="filled",URL="$class_icosidodecahedron_builder.html#ac6344d54fc407d672cbfe28a46346b5e",tooltip="Get the number of icosidodecahedron father. "];
}
