digraph "Icosidodecahedron.GetRandomFace"
{
  edge [fontname="Helvetica",fontsize="10",labelfontname="Helvetica",labelfontsize="10"];
  node [fontname="Helvetica",fontsize="10",shape=record];
  rankdir="LR";
  Node1 [label="Icosidodecahedron.GetRandomFace",height=0.2,width=0.4,color="black", fillcolor="grey75", style="filled", fontcolor="black"];
  Node1 -> Node2 [dir="back",color="midnightblue",fontsize="10",style="solid"];
  Node2 [label="RoadBuilder.PutPJ",height=0.2,width=0.4,color="black", fillcolor="white", style="filled",URL="$class_road_builder.html#ac679ccd472bccfbbd0049dab1a3e1ba0",tooltip="Instantiate player into scene. "];
  Node2 -> Node3 [dir="back",color="midnightblue",fontsize="10",style="solid"];
  Node3 [label="Core.Teleport",height=0.2,width=0.4,color="black", fillcolor="white", style="filled",URL="$class_core.html#af08ed8a97fb95187e2c5b57e9448dd07",tooltip="Teleport to random face from an icosidodecahedron "];
}
