digraph "IcosidodecahedronList.Clear"
{
  edge [fontname="Helvetica",fontsize="10",labelfontname="Helvetica",labelfontsize="10"];
  node [fontname="Helvetica",fontsize="10",shape=record];
  rankdir="LR";
  Node1 [label="IcosidodecahedronList.Clear",height=0.2,width=0.4,color="black", fillcolor="grey75", style="filled", fontcolor="black"];
  Node1 -> Node2 [color="midnightblue",fontsize="10",style="solid"];
  Node2 [label="IcosidodecahedronList.Is\lEmpty",height=0.2,width=0.4,color="black", fillcolor="white", style="filled",URL="$class_icosidodecahedron_list.html#acc3c0a2b0e04f402216460b174f96316",tooltip="Check if the list is empty. "];
  Node1 -> Node3 [color="midnightblue",fontsize="10",style="solid"];
  Node3 [label="IcosidodecahedronList.GetNext",height=0.2,width=0.4,color="black", fillcolor="white", style="filled",URL="$class_icosidodecahedron_list.html#a357dad9485e79a52280de8b43034e3c6",tooltip="Get the first icosidodecahedron and erase from the list. "];
  Node1 -> Node4 [color="midnightblue",fontsize="10",style="solid"];
  Node4 [label="Icosidodecahedron.Destroy",height=0.2,width=0.4,color="black", fillcolor="white", style="filled",URL="$class_icosidodecahedron.html#aae08adbf11317981b5948c3596f0ab8a",tooltip="Destroyer. "];
  Node4 -> Node5 [color="midnightblue",fontsize="10",style="solid"];
  Node5 [label="InternalRoadGenerator.Destroy",height=0.2,width=0.4,color="black", fillcolor="white", style="filled",URL="$class_internal_road_generator.html#a7a4eecbf27d0aa46563862c53bd2faa8",tooltip="Destroyer of icosidodecahedron. "];
  Node4 -> Node6 [color="midnightblue",fontsize="10",style="solid"];
  Node6 [label="IcosidodecahedronBuilder.\lDestroy",height=0.2,width=0.4,color="black", fillcolor="white", style="filled",URL="$class_icosidodecahedron_builder.html#a1eb7143fa8ac4acd4af9ea9194c39f39",tooltip="Destroyer "];
}
