digraph "RoadBuilder.Start"
{
  edge [fontname="Helvetica",fontsize="10",labelfontname="Helvetica",labelfontsize="10"];
  node [fontname="Helvetica",fontsize="10",shape=record];
  rankdir="LR";
  Node1 [label="RoadBuilder.Start",height=0.2,width=0.4,color="black", fillcolor="grey75", style="filled", fontcolor="black"];
  Node1 -> Node2 [color="midnightblue",fontsize="10",style="solid"];
  Node2 [label="IcosidodecahedronList.Add",height=0.2,width=0.4,color="black", fillcolor="white", style="filled",URL="$class_icosidodecahedron_list.html#aa0938c08c91fec6ae6268758d347a3f9",tooltip="Add an icosiododechaedron to the list. "];
  Node1 -> Node3 [color="midnightblue",fontsize="10",style="solid"];
  Node3 [label="SpaceDivision.Add",height=0.2,width=0.4,color="black", fillcolor="white", style="filled",URL="$class_space_division.html#a4f193a1351e2c833cdf5549f92c7afc0",tooltip="Save a icosidodecahedron data "];
  Node1 -> Node4 [color="midnightblue",fontsize="10",style="solid"];
  Node4 [label="Icosidodecahedron.PutInTo\lScene",height=0.2,width=0.4,color="black", fillcolor="white", style="filled",URL="$class_icosidodecahedron.html#aea51ad9120887cf4fcfdadcd34bcc6c7",tooltip="Instantiate an icosidodecahedron gameobject into scene with a number of faces. "];
  Node4 -> Node5 [color="midnightblue",fontsize="10",style="solid"];
  Node5 [label="InternalRoadGenerator.GetRoad",height=0.2,width=0.4,color="black", fillcolor="white", style="filled",URL="$class_internal_road_generator.html#a6cd61206034ab8990bee5727331aef06",tooltip="Create and get the road of face to use. "];
  Node4 -> Node6 [color="midnightblue",fontsize="10",style="solid"];
  Node6 [label="IcosidodecahedronBuilder.\lAddFace",height=0.2,width=0.4,color="black", fillcolor="white", style="filled",URL="$class_icosidodecahedron_builder.html#ae15a076315cb385287653e3a7d293a9e",tooltip="Instantiate a new face in icosidodecahedron "];
  Node1 -> Node7 [color="midnightblue",fontsize="10",style="solid"];
  Node7 [label="Icosidodecahedron.Render",height=0.2,width=0.4,color="black", fillcolor="white", style="filled",URL="$class_icosidodecahedron.html#a3156573874724cf08055ff686d297f85",tooltip="Unhide the faces of this icosidodecahedron "];
  Node7 -> Node8 [color="midnightblue",fontsize="10",style="solid"];
  Node8 [label="IcosidodecahedronBuilder.\lRendered",height=0.2,width=0.4,color="black", fillcolor="white", style="filled",URL="$class_icosidodecahedron_builder.html#ae9722b4ac2b0568ca2c7c302e049173c",tooltip="Activation of render from all platform "];
  Node1 -> Node9 [color="midnightblue",fontsize="10",style="solid"];
  Node9 [label="Icosidodecahedron.CheckFaces",height=0.2,width=0.4,color="black", fillcolor="white", style="filled",URL="$class_icosidodecahedron.html#a2b929cdf9c7958618ebc10fa74ab4154",tooltip="Activate the proces to check collision. "];
  Node9 -> Node10 [color="midnightblue",fontsize="10",style="solid"];
  Node10 [label="IcosidodecahedronBuilder.\lCheckfaces",height=0.2,width=0.4,color="black", fillcolor="white", style="filled",URL="$class_icosidodecahedron_builder.html#a37e7cca2b153b91c3a85dbe228db8426",tooltip="Activate process performance against collision "];
}
