digraph "InternalRoadGenerator.GetOppositeFace"
{
  edge [fontname="Helvetica",fontsize="10",labelfontname="Helvetica",labelfontsize="10"];
  node [fontname="Helvetica",fontsize="10",shape=record];
  rankdir="LR";
  Node1 [label="InternalRoadGenerator.Get\lOppositeFace",height=0.2,width=0.4,color="black", fillcolor="grey75", style="filled", fontcolor="black"];
  Node1 -> Node2 [dir="back",color="midnightblue",fontsize="10",style="solid"];
  Node2 [label="RoadBuilder.GenerateSons",height=0.2,width=0.4,color="black", fillcolor="white", style="filled",URL="$class_road_builder.html#aa63d6ecfb5b14c073a877c7f9a9a6edf",tooltip="Generate all possible icosiododecahedron sons. "];
}
