digraph "TupleList.GetIcosiNumber"
{
  edge [fontname="Helvetica",fontsize="10",labelfontname="Helvetica",labelfontsize="10"];
  node [fontname="Helvetica",fontsize="10",shape=record];
  rankdir="LR";
  Node1 [label="TupleList.GetIcosiNumber",height=0.2,width=0.4,color="black", fillcolor="grey75", style="filled", fontcolor="black"];
  Node1 -> Node2 [dir="back",color="midnightblue",fontsize="10",style="solid"];
  Node2 [label="RoadBuilder.Repair",height=0.2,width=0.4,color="black", fillcolor="white", style="filled",URL="$class_road_builder.html#a7c314c9501a6a9d96c007e23c3133b9b",tooltip="Repair the corridors which cannot be used. "];
  Node1 -> Node3 [dir="back",color="midnightblue",fontsize="10",style="solid"];
  Node3 [label="TupleList.Equals",height=0.2,width=0.4,color="black", fillcolor="white", style="filled",URL="$class_tuple_list.html#a48e4af3d0f557a3aab03ec5a5dd88a77",tooltip="Operator equals. "];
}
